D:\Code\Szkola\Projekt_inz\lasertracker\LaserDriver\LaserDriver\LaserServer.cpp|/home/pi/projects/LaserDriver/LaserServer.cpp
D:\Code\Szkola\Projekt_inz\lasertracker\LaserDriver\LaserDriver|/home/pi/projects/LaserDriver
@D:\Code\Szkola\Projekt_inz\lasertracker\LaserDriver\LaserDriver|@/home/pi/projects/LaserDriver
D:\Code\Szkola\Projekt_inz\lasertracker\LaserDriver\LaserDriver\main.cpp|/home/pi/projects/LaserDriver/main.cpp
D:\Code\Szkola\Projekt_inz\lasertracker\LaserDriver\LaserDriver\LaserServer.h|/home/pi/projects/LaserDriver/LaserServer.h
