D:\Code\Szkola\Projekt_inz\lasertracker\LaserDriver\LaserDriver\LaserServer.cpp|636835436392705099|/home/pi/projects/LaserDriver||g++ -c -x c++ /home/pi/projects/LaserDriver/LaserServer.cpp -I "/home/pi/code/rpidmx512/lib-pca9685/include" -g2 -gdwarf-2 -o "/home/pi/projects/LaserDriver/obj/ARM/Debug/LaserServer.o" -Wall -Wswitch -W"no-deprecated-declarations" -W"empty-body" -Wconversion -W"return-type" -Wparentheses -W"no-format" -Wuninitialized -W"unreachable-code" -W"unused-function" -W"unused-value" -W"unused-variable" -O0 -fno-strict-aliasing -fno-omit-frame-pointer -fthreadsafe-statics -fexceptions -frtti -std=c++11
D:\Code\Szkola\Projekt_inz\lasertracker\LaserDriver\LaserDriver\main.cpp|636835064156825537|/home/pi/projects/LaserDriver||g++ -c -x c++ /home/pi/projects/LaserDriver/main.cpp -I "/home/pi/code/rpidmx512/lib-pca9685/include" -g2 -gdwarf-2 -o "/home/pi/projects/LaserDriver/obj/ARM/Debug/main.o" -Wall -Wswitch -W"no-deprecated-declarations" -W"empty-body" -Wconversion -W"return-type" -Wparentheses -W"no-format" -Wuninitialized -W"unreachable-code" -W"unused-function" -W"unused-value" -W"unused-variable" -O0 -fno-strict-aliasing -fno-omit-frame-pointer -fthreadsafe-statics -fexceptions -frtti -std=c++11
D:\Code\Szkola\Projekt_inz\lasertracker\LaserDriver\LaserDriver\LaserServer.h|636835021504967400|/home/pi/projects/LaserDriver|| 
