^D:\Code\Szkola\Projekt_inz\lasertracker\LaserDriver\LaserDriver\LaserServer.cpp
D:\Code\Szkola\Projekt_inz\lasertracker\LaserDriver\LaserDriver\obj\ARM\Release\408890086.CompileUpToDateFile.tlog
^D:\Code\Szkola\Projekt_inz\lasertracker\LaserDriver\LaserDriver\main.cpp
D:\Code\Szkola\Projekt_inz\lasertracker\LaserDriver\LaserDriver\obj\ARM\Release\408890086.CompileUpToDateFile.tlog
